<svg width="56" height="56" viewBox="0 0 56 56" fill="none" xmlns="http://www.w3.org/2000/svg">
<rect width="56" height="56" rx="18" fill="#FFEEC8"/>
<path d="M38.5 21.7726C37.7271 22.1005 36.8978 22.3229 36.0264 22.4222C36.9161 21.9121 37.5972 21.1029 37.92 20.1416C37.0854 20.6141 36.1642 20.9571 35.1826 21.1431C34.3966 20.3402 33.2785 19.8401 32.0384 19.8401C29.6593 19.8401 27.7303 21.6872 27.7303 23.9639C27.7303 24.2868 27.7683 24.6022 27.8418 24.9038C24.262 24.7317 21.0877 23.0894 18.9631 20.594C18.5918 21.2021 18.3805 21.9108 18.3805 22.6672C18.3805 24.0984 19.1416 25.3612 20.2964 26.1C19.5904 26.0774 18.9264 25.8914 18.3451 25.5823V25.6338C18.3451 27.6317 19.8306 29.299 21.8002 29.6785C21.4394 29.7715 21.0588 29.823 20.6651 29.823C20.387 29.823 20.1179 29.7966 19.8542 29.7464C20.4027 31.3861 21.9931 32.5785 23.8776 32.6112C22.4039 33.7169 20.5457 34.3741 18.5275 34.3741C18.1798 34.3741 17.8372 34.354 17.5 34.3176C19.4067 35.4899 21.6704 36.1734 24.1033 36.1734C32.028 36.1734 36.3597 29.8884 36.3597 24.4377L36.3453 23.9037C37.1917 23.3256 37.9239 22.5994 38.5 21.7726Z" fill="url(#paint0_linear)"/>
<defs>
<linearGradient id="paint0_linear" x1="17.5" y1="22.7694" x2="39.8777" y2="23.223" gradientUnits="userSpaceOnUse">
<stop stop-color="#BE9639"/>
<stop offset="1" stop-color="#DDC58E"/>
</linearGradient>
</defs>
</svg>
