<svg width="48" height="44" viewBox="0 0 48 44" fill="none" xmlns="http://www.w3.org/2000/svg">
<path fill-rule="evenodd" clip-rule="evenodd" d="M47.9915 12.9003H37.8283C33.0987 12.9086 29.2672 16.6443 29.2587 21.2558C29.2523 25.8776 33.088 29.6299 37.8283 29.6362H48V30.3704C48 38.4326 43.1125 43.2 34.8416 43.2H13.1605C4.88747 43.2 0 38.4326 0 30.3704V12.8109C0 4.74869 4.88747 0 13.1605 0H34.8331C43.104 0 47.9915 4.74869 47.9915 12.8109V12.9003ZM11.3749 12.8816H24.9109H24.9194H24.9365C25.9498 12.8775 26.769 12.0725 26.7648 11.0824C26.7605 10.0944 25.9328 9.29565 24.9194 9.29982H11.3749C10.368 9.30399 9.55091 10.1006 9.54665 11.0845C9.54238 12.0725 10.3616 12.8775 11.3749 12.8816Z" fill="#130F26"/>
<path fill-rule="evenodd" clip-rule="evenodd" d="M47.9915 12.9003H37.8283C33.0987 12.9086 29.2672 16.6443 29.2587 21.2558C29.2523 25.8776 33.088 29.6299 37.8283 29.6362H48V30.3704C48 38.4326 43.1125 43.2 34.8416 43.2H13.1605C4.88747 43.2 0 38.4326 0 30.3704V12.8109C0 4.74869 4.88747 0 13.1605 0H34.8331C43.104 0 47.9915 4.74869 47.9915 12.8109V12.9003ZM11.3749 12.8816H24.9109H24.9194H24.9365C25.9498 12.8775 26.769 12.0725 26.7648 11.0824C26.7605 10.0944 25.9328 9.29565 24.9194 9.29982H11.3749C10.368 9.30399 9.55091 10.1006 9.54665 11.0845C9.54238 12.0725 10.3616 12.8775 11.3749 12.8816Z" fill="url(#paint0_linear)"/>
<g opacity="0.4">
<path d="M33.6898 22.312C34.1917 24.5948 36.1932 26.201 38.4782 26.1592H46.278C47.2288 26.1592 48 25.3718 48 24.3985V18.3228C47.998 17.3516 47.2288 16.5621 46.278 16.56H38.2946C35.6953 16.5684 33.5959 18.7259 33.6 21.3847C33.6 21.6959 33.6306 22.0071 33.6898 22.312Z" fill="#130F26"/>
<path d="M33.6898 22.312C34.1917 24.5948 36.1932 26.201 38.4782 26.1592H46.278C47.2288 26.1592 48 25.3718 48 24.3985V18.3228C47.998 17.3516 47.2288 16.5621 46.278 16.56H38.2946C35.6953 16.5684 33.5959 18.7259 33.6 21.3847C33.6 21.6959 33.6306 22.0071 33.6898 22.312Z" fill="url(#paint1_linear)"/>
</g>
<circle cx="38.4" cy="21.36" r="2.4" fill="#130F26"/>
<circle cx="38.4" cy="21.36" r="2.4" fill="url(#paint2_linear)"/>
<defs>
<linearGradient id="paint0_linear" x1="2.92291e-07" y1="7.7478" x2="51.1542" y2="8.64378" gradientUnits="userSpaceOnUse">
<stop stop-color="#BE9639"/>
<stop offset="1" stop-color="#DDC58E"/>
</linearGradient>
<linearGradient id="paint1_linear" x1="33.6" y1="18.2817" x2="48.9424" y2="18.6445" gradientUnits="userSpaceOnUse">
<stop stop-color="#BE9639"/>
<stop offset="1" stop-color="#DDC58E"/>
</linearGradient>
<linearGradient id="paint2_linear" x1="36" y1="19.8209" x2="41.1157" y2="19.9015" gradientUnits="userSpaceOnUse">
<stop stop-color="#BE9639"/>
<stop offset="1" stop-color="#DDC58E"/>
</linearGradient>
</defs>
</svg>
